{
  "user": {
    "name": "Ryan Yeske",
    "email": "ryan@ryanyeske.com",
    "username": "rcy",
    "avatar_url": "https://secure.gravatar.com/avatar/ad97288992ac71f67bddc055fc8daf6b?s=80&d=identicon"
  },
  "labels": [],
  "changes": {
    "state_id": {
      "current": 1,
      "previous": 2
    },
    "closed_at": {
      "current": null,
      "previous": "2020-09-10 06:27:59 UTC"
    },
    "updated_at": {
      "current": "2020-09-10 06:28:30 UTC",
      "previous": "2020-09-10 06:27:59 UTC"
    }
  },
  "project": {
    "id": 9707565,
    "url": "git@gitlab.com:rcy/a.b.c.git",
    "name": "a.b.c",
    "ssh_url": "git@gitlab.com:rcy/a.b.c.git",
    "web_url": "https://gitlab.com/rcy/a.b.c",
    "homepage": "https://gitlab.com/rcy/a.b.c",
    "http_url": "https://gitlab.com/rcy/a.b.c.git",
    "namespace": "Ryan Yeske",
    "avatar_url": null,
    "description": "",
    "git_ssh_url": "git@gitlab.com:rcy/a.b.c.git",
    "git_http_url": "https://gitlab.com/rcy/a.b.c.git",
    "ci_config_path": null,
    "default_branch": "master",
    "visibility_level": 0,
    "path_with_namespace": "rcy/a.b.c"
  },
  "event_type": "issue",
  "repository": {
    "url": "git@gitlab.com:rcy/a.b.c.git",
    "name": "a.b.c",
    "homepage": "https://gitlab.com/rcy/a.b.c",
    "description": ""
  },
  "object_kind": "issue",
  "object_attributes": {
    "id": 30007212,
    "iid": 2,
    "url": "https://gitlab.com/rcy/a.b.c/-/issues/2",
    "state": "opened",
    "title": "my new issue",
    "action": "reopen",
    "labels": [],
    "weight": null,
    "due_date": null,
    "state_id": 1,
    "author_id": 111355,
    "closed_at": null,
    "created_at": "2020-01-28 07:17:50 UTC",
    "project_id": 9707565,
    "updated_at": "2020-09-10 06:28:30 UTC",
    "assignee_id": null,
    "description": "",
    "moved_to_id": null,
    "assignee_ids": [],
    "confidential": false,
    "milestone_id": null,
    "time_estimate": 0,
    "updated_by_id": null,
    "last_edited_at": null,
    "duplicated_to_id": null,
    "total_time_spent": 0,
    "discussion_locked": null,
    "last_edited_by_id": null,
    "relative_position": 1073742823,
    "human_time_estimate": null,
    "human_total_time_spent": null
  }
}
