{
  "user": {
    "name": "Ryan Yeske",
    "email": "ryan@ryanyeske.com",
    "username": "rcy",
    "avatar_url": "https://secure.gravatar.com/avatar/ad97288992ac71f67bddc055fc8daf6b?s=80&d=identicon"
  },
  "labels": [],
  "changes": {
    "id": {
      "current": 69949987,
      "previous": null
    },
    "iid": {
      "current": 2,
      "previous": null
    },
    "title": {
      "current": "put the date in a file",
      "previous": null
    },
    "author_id": {
      "current": 111355,
      "previous": null
    },
    "created_at": {
      "current": "2020-09-05 15:16:45 UTC",
      "previous": null
    },
    "updated_at": {
      "current": "2020-09-05 15:16:45 UTC",
      "previous": null
    },
    "description": {
      "current": "we should have a file that includes the date in it",
      "previous": null
    },
    "merge_params": {
      "current": {
        "force_remove_source_branch": "0"
      },
      "previous": {}
    },
    "source_branch": {
      "current": "foo",
      "previous": null
    },
    "target_branch": {
      "current": "master",
      "previous": null
    },
    "source_project_id": {
      "current": 9707565,
      "previous": null
    },
    "target_project_id": {
      "current": 9707565,
      "previous": null
    }
  },
  "project": {
    "id": 9707565,
    "url": "git@gitlab.com:rcy/a.b.c.git",
    "name": "a.b.c",
    "ssh_url": "git@gitlab.com:rcy/a.b.c.git",
    "web_url": "https://gitlab.com/rcy/a.b.c",
    "homepage": "https://gitlab.com/rcy/a.b.c",
    "http_url": "https://gitlab.com/rcy/a.b.c.git",
    "namespace": "Ryan Yeske",
    "avatar_url": null,
    "description": "",
    "git_ssh_url": "git@gitlab.com:rcy/a.b.c.git",
    "git_http_url": "https://gitlab.com/rcy/a.b.c.git",
    "ci_config_path": null,
    "default_branch": "master",
    "visibility_level": 0,
    "path_with_namespace": "rcy/a.b.c"
  },
  "assignees": [
    {
      "name": "Ryan Yeske",
      "email": "ryan@ryanyeske.com",
      "username": "rcy",
      "avatar_url": "https://secure.gravatar.com/avatar/ad97288992ac71f67bddc055fc8daf6b?s=80&d=identicon"
    }
  ],
  "event_type": "merge_request",
  "repository": {
    "url": "git@gitlab.com:rcy/a.b.c.git",
    "name": "a.b.c",
    "homepage": "https://gitlab.com/rcy/a.b.c",
    "description": ""
  },
  "object_kind": "merge_request",
  "object_attributes": {
    "id": 69949987,
    "iid": 2,
    "url": "https://gitlab.com/rcy/a.b.c/-/merge_requests/2",
    "state": "opened",
    "title": "put the date in a file",
    "action": "open",
    "source": {
      "id": 9707565,
      "url": "git@gitlab.com:rcy/a.b.c.git",
      "name": "a.b.c",
      "ssh_url": "git@gitlab.com:rcy/a.b.c.git",
      "web_url": "https://gitlab.com/rcy/a.b.c",
      "homepage": "https://gitlab.com/rcy/a.b.c",
      "http_url": "https://gitlab.com/rcy/a.b.c.git",
      "namespace": "Ryan Yeske",
      "avatar_url": null,
      "description": "",
      "git_ssh_url": "git@gitlab.com:rcy/a.b.c.git",
      "git_http_url": "https://gitlab.com/rcy/a.b.c.git",
      "ci_config_path": null,
      "default_branch": "master",
      "visibility_level": 0,
      "path_with_namespace": "rcy/a.b.c"
    },
    "target": {
      "id": 9707565,
      "url": "git@gitlab.com:rcy/a.b.c.git",
      "name": "a.b.c",
      "ssh_url": "git@gitlab.com:rcy/a.b.c.git",
      "web_url": "https://gitlab.com/rcy/a.b.c",
      "homepage": "https://gitlab.com/rcy/a.b.c",
      "http_url": "https://gitlab.com/rcy/a.b.c.git",
      "namespace": "Ryan Yeske",
      "avatar_url": null,
      "description": "",
      "git_ssh_url": "git@gitlab.com:rcy/a.b.c.git",
      "git_http_url": "https://gitlab.com/rcy/a.b.c.git",
      "ci_config_path": null,
      "default_branch": "master",
      "visibility_level": 0,
      "path_with_namespace": "rcy/a.b.c"
    },
    "state_id": 1,
    "author_id": 111355,
    "created_at": "2020-09-05 15:16:45 UTC",
    "updated_at": "2020-09-05 15:16:45 UTC",
    "assignee_id": 111355,
    "description": "we should have a file that includes the date in it",
    "last_commit": {
      "id": "8eecac9315927ca60fded49f395208cfc5391dc7",
      "url": "https://gitlab.com/rcy/a.b.c/-/commit/8eecac9315927ca60fded49f395208cfc5391dc7",
      "title": "put the date in a file",
      "author": {
        "name": "Ryan Yeske",
        "email": "ryan@ryanyeske.com"
      },
      "message": "put the date in a file\n",
      "timestamp": "2020-09-05T08:16:06-07:00"
    },
    "merge_error": null,
    "assignee_ids": [
      111355
    ],
    "merge_params": {
      "force_remove_source_branch": "0"
    },
    "merge_status": "unchecked",
    "milestone_id": null,
    "merge_user_id": null,
    "source_branch": "foo",
    "target_branch": "master",
    "time_estimate": 0,
    "updated_by_id": null,
    "last_edited_at": null,
    "head_pipeline_id": null,
    "merge_commit_sha": null,
    "total_time_spent": 0,
    "work_in_progress": false,
    "last_edited_by_id": null,
    "source_project_id": 9707565,
    "target_project_id": 9707565,
    "human_time_estimate": null,
    "human_total_time_spent": null,
    "merge_when_pipeline_succeeds": false
  }
}
