{
  "model": {
    "id": "5f5ba83305be900dfaf46814",
    "url": "https://trello.com/b/3JPcuG3r/webhook-testing",
    "desc": "",
    "name": "__webhook testing",
    "prefs": {
      "voting": "disabled",
      "canBeOrg": true,
      "comments": "members",
      "selfJoin": true,
      "canInvite": true,
      "cardAging": "regular",
      "hideVotes": false,
      "background": "red",
      "cardCovers": true,
      "isTemplate": false,
      "canBePublic": true,
      "invitations": "members",
      "canBePrivate": true,
      "backgroundTile": false,
      "backgroundColor": "#B04632",
      "backgroundImage": null,
      "canBeEnterprise": true,
      "permissionLevel": "org",
      "backgroundTopColor": "#B04632",
      "calendarFeedEnabled": false,
      "backgroundBrightness": "dark",
      "backgroundBottomColor": "#B04632",
      "backgroundImageScaled": null
    },
    "closed": false,
    "pinned": false,
    "descData": null,
    "shortUrl": "https://trello.com/b/3JPcuG3r",
    "labelNames": {
      "red": "",
      "sky": "",
      "blue": "",
      "lime": "",
      "pink": "",
      "black": "",
      "green": "",
      "orange": "",
      "purple": "",
      "yellow": ""
    },
    "idEnterprise": null,
    "idOrganization": "5eb31b6cd0b3c3594f447930"
  },
  "action": {
    "id": "5f5bc7ab116d9f7565a5bb22",
    "data": {
      "old": {
        "idList": "5f5ba8c1318ad10570298d3a"
      },
      "card": {
        "id": "5f5bb34408e29e59c30c604d",
        "name": "lemon",
        "idList": "5f5bb3f66988b0038a35c32f",
        "idShort": 6,
        "shortLink": "lT5GehBz"
      },
      "board": {
        "id": "5f5ba83305be900dfaf46814",
        "name": "__webhook testing",
        "shortLink": "3JPcuG3r"
      },
      "listAfter": {
        "id": "5f5bb3f66988b0038a35c32f",
        "name": "current"
      },
      "listBefore": {
        "id": "5f5ba8c1318ad10570298d3a",
        "name": "backlog"
      }
    },
    "date": "2020-09-11T18:53:31.708Z",
    "type": "updateCard",
    "limits": {},
    "display": {
      "entities": {
        "card": {
          "id": "5f5bb34408e29e59c30c604d",
          "text": "lemon",
          "type": "card",
          "idList": "5f5bb3f66988b0038a35c32f",
          "shortLink": "lT5GehBz"
        },
        "listAfter": {
          "id": "5f5bb3f66988b0038a35c32f",
          "text": "current",
          "type": "list"
        },
        "listBefore": {
          "id": "5f5ba8c1318ad10570298d3a",
          "text": "backlog",
          "type": "list"
        },
        "memberCreator": {
          "id": "4fc5a3964065d1533487e5a2",
          "text": "Ryan Yeske",
          "type": "member",
          "username": "ryanyeske"
        }
      },
      "translationKey": "action_move_card_from_list_to_list"
    },
    "memberCreator": {
      "id": "4fc5a3964065d1533487e5a2",
      "fullName": "Ryan Yeske",
      "initials": "RY",
      "username": "ryanyeske",
      "avatarUrl": "https://trello-members.s3.amazonaws.com/4fc5a3964065d1533487e5a2/5b11ec7b940124677811a39701298f16",
      "nonPublic": {},
      "avatarHash": "5b11ec7b940124677811a39701298f16",
      "activityBlocked": false,
      "idMemberReferrer": null,
      "nonPublicAvailable": true
    },
    "idMemberCreator": "4fc5a3964065d1533487e5a2"
  }
}
