{
  "trello_board": {
    "_templateKey": "action.type",
    "_templates": {
      "createCard": {
        "summary": "{{action.display.entities.memberCreator.text}} created card #{{action.data.card.idShort}} \"{{action.data.card.name}}\" in list \"{{action.data.list.name}}\"",
        "detail": null,
        "subjectPersonaExternId": "{{action.idMemberCreator}}",
        "subjectPersonaExternData": { "_field": "action.memberCreator" },
        "verb": "created",
        "objectData": { "_field": "action.data.card" },
        "objectType": "trello_card",
        "indirectObjectData": { "_field": "action.data.list" },
        "indirectObjectType": "trello_list"
      },
      "createList": {
        "summary": "{{action.display.entities.memberCreator.text}} created list \"{{action.display.entities.list.text}}\"",
        "detail": null,
        "subjectPersonaExternId": "{{action.idMemberCreator}}",
        "subjectPersonaExternData": { "_field": "action.memberCreator" },
        "verb": "created",
        "objectData": { "_field": "action.data.list" },
        "objectType": "trello_list",
        "indirectObjectData": null,
        "indirectObjectType": null
      },
      "updateCard": {
        "_templateKey": "action.display.translationKey",
        "_templates": {
          "action_move_card_from_list_to_list": {
            "summary": "{{action.display.entities.memberCreator.text}} moved card #{{action.data.card.idShort}} \"{{action.display.entities.card.text}}\" from \"{{action.display.entities.listBefore.text}}\" to \"{{action.display.entities.listAfter.text}}\"",
            "detail": null,
            "subjectPersonaExternId": "{{action.idMemberCreator}}",
            "subjectPersonaExternData": { "_field": "action.memberCreator" },
            "verb": "moved",
            "objectData": { "_field": "action.data.card" },
            "objectType": "trello_card",
            "indirectObjectData": { "_field": "action.data.listAfter" },
            "indirectObjectType": "trello_list"
          },
          "action_moved_card_lower": {
            "summary": "{{action.display.entities.memberCreator.text}} lowered card #{{action.data.card.idShort}} \"{{action.display.entities.card.text}}\"",
            "detail": null,
            "subjectPersonaExternId": "{{action.idMemberCreator}}",
            "subjectPersonaExternData": { "_field": "action.memberCreator" },
            "verb": "lowered",
            "objectData": { "_field": "action.data.card" },
            "objectType": "trello_card",
            "indirectObjectData": { "_field": "action.data.list" },
            "indirectObjectType": "trello_list"
          },
          "action_moved_card_higher": {
            "summary": "{{action.display.entities.memberCreator.text}} raised card #{{action.data.card.idShort}} \"{{action.display.entities.card.text}}\"",
            "detail": null,
            "subjectPersonaExternId": "{{action.idMemberCreator}}",
            "subjectPersonaExternData": { "_field": "action.memberCreator" },
            "verb": "raised",
            "objectData": { "_field": "action.data.card" },
            "objectType": "trello_card",
            "indirectObjectData": { "_field": "action.data.list" },
            "indirectObjectType": "trello_list"
          },
          "action_changed_description_of_card": {
            "summary": "{{action.display.entities.memberCreator.text}} changed description of card #{{action.data.card.idShort}} \"{{action.display.entities.card.text}}\"",
            "detail": "{{action.display.entities.card.desc}}",
            "subjectPersonaExternId": "{{action.idMemberCreator}}",
            "subjectPersonaExternData": { "_field": "action.memberCreator" },
            "verb": "updated",
            "objectData": { "_field": "action.data.card" },
            "objectType": "trello_card",
            "change": {
              "field": {
                "name": "description",
                "type": "string"
              },
              "before": "{{action.data.old.desc}}",
              "after": "{{action.data.card.desc}}"
            },
            "indirectObjectData": null,
            "indirectObjectType": null
          },
          "action_renamed_card": {
            "summary": "{{action.display.entities.memberCreator.text}} renamed card #{{action.data.card.idShort}} \"{{action.display.entities.card.text}}\"",
            "detail": null,
            "subjectPersonaExternId": "{{action.idMemberCreator}}",
            "subjectPersonaExternData": { "_field": "action.memberCreator" },
            "verb": "updated",
            "objectData": { "_field": "action.data.card" },
            "objectType": "trello_card",
            "change": {
              "field": {
                "name": "name",
                "type": "string"
              },
              "before": "{{action.data.old.name}}",
              "after": "{{action.data.card.name}}"
            },
            "indirectObjectData": null,
            "indirectObjectType": null
          },
          "action_archived_card": {
            "summary": "{{action.display.entities.memberCreator.text}} archived card #{{action.data.card.idShort}} \"{{action.display.entities.card.text}}\"",
            "detail": null,
            "subjectPersonaExternId": "{{action.idMemberCreator}}",
            "subjectPersonaExternData": { "_field": "action.memberCreator" },
            "verb": "archived",
            "objectData": { "_field": "action.data.card" },
            "objectType": "trello_card",
            "indirectObjectData": null,
            "indirectObjectType": null
          }
        }
      },
      "commentCard": {
        "_templateKey": "action.display.translationKey",
        "_templates": {
          "action_comment_on_card": {
            "summary": "{{action.display.entities.memberCreator.text}} commented on card #{{action.data.card.idShort}} \"{{action.display.entities.card.text}}\"",
            "detail": "{{action.data.text}}",
            "verb": "commented",
            "objectType": "trello_comment",
            "objectData": { "_field": "action.data.text" },
            "subjectPersonaExternId": "{{action.idMemberCreator}}",
            "subjectPersonaExternData": { "_field": "action.memberCreator" },
            "indirectObjectData": { "_field": "action.data.card" },
            "indirectObjectType": "trello_card"            
          }
        }
      },
      "updateList": {
        "_templateKey": "action.display.translationKey",
        "_templates": {
          "action_moved_list_left": {
            "summary": "{{action.display.entities.memberCreator.text}} moved list \"{{action.data.list.name}}\" to the left",
            "detail": null,
            "subjectPersonaExternId": "{{action.idMemberCreator}}",
            "subjectPersonaExternData": { "_field": "action.memberCreator" },
            "verb": "moved left",
            "objectData": { "_field": "action.data.list" },
            "objectType": "trello_list",
            "indirectObjectData": null,
            "indirectObjectType": null
          },
          "action_moved_list_right": {
            "summary": "{{action.display.entities.memberCreator.text}} moved list \"{{action.data.list.name}}\" to the right",
            "detail": null,
            "subjectPersonaExternId": "{{action.idMemberCreator}}",
            "subjectPersonaExternData": { "_field": "action.memberCreator" },
            "verb": "moved right",
            "objectData": { "_field": "action.data.list" },
            "objectType": "trello_list",
            "indirectObjectData": null,
            "indirectObjectType": null
          },
          "action_renamed_list": {
            "summary": "{{action.display.entities.memberCreator.text}} renamed list \"{{action.data.old.name}}\" to \"{{action.display.entities.list.text}}\"",
            "detail": null,
            "subjectPersonaExternId": "{{action.idMemberCreator}}",
            "subjectPersonaExternData": { "_field": "action.memberCreator" },
            "verb": "updated",
            "objectData": { "_field": "action.data.list" },
            "objectType": "trello_list",
            "change": {
              "field": {
                "name": "name",
                "type": "string"
              },
              "before": "{{action.data.old.name}}",
              "after": "{{action.data.list.name}}"
            },
            "indirectObjectData": null,
            "indirectObjectType": null
          }
        }
      }
    }
  },
  "gitlab_project": {
    "_templateKey": "object_kind",
    "_templates": {
      "issue": {
        "_templateKey": "object_attributes.action",
        "_templates": {
          "open": {
            "summary": "created issue #{{object_attributes.iid}} \"{{object_attributes.title}}\"",
            "detail": "{{object_attributes.description}}",
            "subjectPersonaExternId": { "_field": "object_attributes.author_id" },
	    "subjectPersonaExternData": { "_field": "user" },
            "verb": "created",
            "objectData": { "_field": "object_attributes" },
            "objectType": "gitlab_issue"
          },
          "update": {
            "summary": "updated issue #{{object_attributes.iid}} \"{{object_attributes.title}}\"",
            "detail": "{{object_attributes.description}}",
            "subjectPersonaExternId": { "_field": "object_attributes.author_id" },
	    "subjectPersonaExternData": { "_field": "user" },
            "verb": "update",
            "objectData": { "_field": "object_attributes" },
            "objectType": "gitlab_issue"
          },
          "close": {
            "summary": "closed issue #{{object_attributes.iid}} \"{{object_attributes.title}}\"",
            "detail": null,
            "subjectPersonaExternId": { "_field": "object_attributes.author_id" },
	    "subjectPersonaExternData": { "_field": "user" },
            "verb": "closed",
            "objectData": { "_field": "object_attributes" },
            "objectType": "gitlab_issue",
            "indirectObjectData": null,
            "indirectObjectType": null
          },
          "reopen": {
            "summary": "reopened issue #{{object_attributes.iid}} \"{{object_attributes.title}}\"",
            "detail": null,
            "subjectPersonaExternId": { "_field": "object_attributes.author_id" },
	    "subjectPersonaExternData": { "_field": "user" },
            "verb": "created",
            "objectData": { "_field": "object_attributes" },
            "objectType": "gitlab_issue"
          }
        }
      },
      "push": {
        "summary": "pushed {{total_commits_count}} commits to {{{ref}}}",
        "detail": null,
        "verb": "pushed",
        "subjectPersonaExternId":  "{{user_id}}",
	"subjectPersonaExternData": { "_field": "user" },
        "objectData": { "_field": "commits" },
        "objectType": "gitlab_commit_array",
        "indirectObjectData": "{{ref}}",
        "indirectObjectType": "gitlab_commit_array"
      },
      "note": {
        "_templateKey": "object_attributes.noteable_type",
        "_templates": {
          "Issue": {
            "summary": "commented on issue #{{issue.iid}} \"{{issue.title}}\"",
            "detail": "{{object_attributes.note}}",
            "subjectPersonaExternId": "{{object_attributes.author_id}}",
	    "subjectPersonaExternData": { "_field": "user" },
            "verb": "commented",
            "objectData": { "_field": "object_attributes" },
            "objectType": "gitlab_note",
            "indirectObjectData": { "_field": "issue" },
            "indirectObjectType": "gitlab_issue"
          },
          "MergeRequest": {
            "summary": "commented on merge request !{{merge_request.iid}} \"{{merge_request.title}}\"",
            "detail": "{{object_attributes.note}}",
            "subjectPersonaExternId": "{{object_attributes.author_id}}",
	    "subjectPersonaExternData": { "_field": "user" },
            "verb": "commented",
            "objectData": { "_field": "object_attributes" },
            "objectType": "gitlab_note",
            "indirectObjectData": "merge_request",
            "indirectObjectType": "gitlab_merge_request"
          }
        }
      },
      "merge_request": {
        "_templateKey": "object_attributes.action",
        "_templates": {
          "open": {
            "summary": "opened merge request !{{object_attributes.iid}} \"{{object_attributes.title}}\"",
            "detail": "{{object_attributes.description}}",
            "subjectPersonaExternId": "{{object_attributes.author_id}}",
	    "subjectPersonaExternData": { "_field": "user" },
            "verb": "opened",
            "objectData": { "_field": "object_attributes" },
            "objectType": "gitlab_merge_request"
          },
          "close": {
            "summary": "closed merge request !{{object_attributes.iid}} \"{{object_attributes.title}}\"",
            "detail": null,
            "subjectPersonaExternId": "{{object_attributes.author_id}}",
	    "subjectPersonaExternData": { "_field": "user" },
            "verb": "closed",
            "objectData": { "_field": "object_attributes" },
            "objectType": "gitlab_merge_request"
          },
          "reopen": {
            "summary": "reopened merge request !{{object_attributes.iid}} \"{{object_attributes.title}}\"",
            "detail": null,
            "subjectPersonaExternId": "{{object_attributes.author_id}}",
	    "subjectPersonaExternData": { "_field": "user" },
            "verb": "reopened",
            "objectData": { "_field": "object_attributes" },
            "objectType": "gitlab_merge_request"
          },
          "update": {
            "summary": "updated merge request !{{object_attributes.iid}} \"{{object_attributes.title}}\"",
            "detail": "{{object_attributes.description}}",
            "subjectPersonaExternId": "{{object_attributes.author_id}}",
	    "subjectPersonaExternData": { "_field": "user" },
            "verb": "updated",
            "objectData": { "_field": "object_attributes" },
            "objectType": "gitlab_merge_request"
          },
          "merge": {
            "summary": "merged merge request !{{object_attributes.iid}} \"{{object_attributes.title}}\"",
            "detail": "{{object_attributes.description}}",
            "subjectPersonaExternId": "{{object_attributes.author_id}}",
	    "subjectPersonaExternData": { "_field": "user" },
            "verb": "merged",
            "objectData": { "_field": "object_attributes" },
            "objectType": "gitlab_merge_request"
          },
          "approved": {
            "summary": "approved merge request !{{object_attributes.iid}} \"{{object_attributes.title}}\"",
            "detail": "{{object_attributes.description}}",
            "subjectPersonaExternId": "{{object_attributes.author_id}}",
	    "subjectPersonaExternData": { "_field": "user" },
            "verb": "approved",
            "objectData": { "_field": "object_attributes" },
            "objectType": "gitlab_merge_request"
          },
          "unapproved": {
            "summary": "unapproved merge request !{{object_attributes.iid}} \"{{object_attributes.title}}\"",
            "detail": "{{object_attributes.description}}",
            "subjectPersonaExternId": "{{object_attributes.author_id}}",
	    "subjectPersonaExternData": { "_field": "user" },
            "verb": "unapproved",
            "objectData": { "_field": "object_attributes" },
            "objectType": "gitlab_merge_request"
          }
        }
      }
    }
  }
}
